<?xml version="1.0" encoding="utf-8"?>
<svg width="1194" height="834" viewBox="-597 -417 1194 834" xmlns="http://www.w3.org/2000/svg">
  <style>
svg { background-color:#8CA672; }

#looom { --version:2; }

#t0 {
--visible:1; --timeOffset:1.666667; --speed:12; --bookmarkIndex:-1; --latched:0; 
stroke:#B66C6C; stroke-opacity:1; fill-opacity:0; stroke-width:28.99942; stroke-linecap:round; stroke-linejoin:round;
}
@keyframes t0 { 0% { opacity: 1; } 100% { opacity: 0; } }
#t0 .frame { animation:t0 0.08333334s calc(var(--index) * 0.08333334s) steps(1) infinite; }

#t1 {
--visible:1; --timeOffset:0.9999999; --speed:6; --bookmarkIndex:-1; --latched:0; 
stroke:#BC7171; stroke-opacity:1; fill-opacity:0; stroke-width:30.74945; stroke-linecap:round; stroke-linejoin:round;
}
@keyframes t1 { 0% { opacity: 1; } 16.66667% { opacity: 0; } }
#t1 .frame { animation:t1 1s calc(var(--index) * 0.1666667s) steps(1) infinite; }

</style>
  <g id="w0" class="weave">
    <g id="t0" class="thread">
      <g id="f0" style="--index:0; opacity:1;" class="frame">
        <path d="M-299.00,-129.50L-300.00,-124.00L-295.00,-90.00L-292.00,-46.00L-286.00,6.00L-284.00,41.50L-281.00,54.00L-277.50,60.00L-276.50,60.50L-276.00,59.50" />
        <path d="M-202.18,-63.38L-209.50,-56.00L-218.50,-50.50L-223.50,-48.50L-237.00,-45.50L-253.00,-46.00L-251.50,-47.50L-231.50,-57.50L-216.50,-61.50L-202.18,-63.38" />
        <path d="M-369.50,-124.00L-360.00,-127.50L-337.00,-139.00L-322.50,-144.50L-297.50,-152.50L-284.50,-154.50L-263.50,-155.50L-242.50,-151.50L-234.50,-149.00L-221.50,-144.00L-204.00,-133.50L-199.00,-129.50L-192.00,-121.00L-188.00,-114.00L-185.50,-107.00L-185.00,-101.50L-186.00,-91.00L-193.50,-74.50L-202.18,-63.38L-186.00,-63.50L-170.00,-60.00L-161.50,-55.50L-157.00,-52.00L-150.50,-44.50L-149.00,-37.00L-149.00,-31.50L-151.50,-21.00L-153.50,-16.50L-160.50,-5.00L-169.50,7.50L-182.50,19.00L-210.00,36.00L-223.00,42.50L-238.00,48.50L-255.50,52.50L-285.50,55.00L-290.00,54.50L-291.00,53.00" />
      </g>
    </g>
    <g id="t1" class="thread">
      <g id="f0" style="--index:0; opacity:1;" class="frame">
        <path d="M-93.50,-131.00L-99.50,-131.00L-101.00,-130.50L-100.00,-129.50L-57.50,-129.50L-11.50,-125.50L18.50,-126.00L26.50,-125.00L27.50,-122.00L25.50,-120.00L-10.00,-97.50L-20.00,-90.00L-37.00,-73.50L-44.00,-64.50L-55.00,-45.50L-66.50,-22.00L-67.50,-18.00L-65.00,-13.50L-60.50,-13.50L-33.50,-22.00L-11.50,-27.50L-2.00,-28.50L17.50,-29.00" />
        <path d="M95.54,-104.39L94.50,-104.50L95.54,-104.39" />
        <path d="M102.00,-103.00L95.54,-104.39L99.00,-104.00L116.50,-98.50L123.50,-95.50L139.00,-88.00L146.50,-83.50L159.50,-78.00L167.00,-76.50L176.50,-76.50L168.50,-71.50L147.50,-61.00L139.50,-55.50L125.00,-43.00L120.00,-37.00L115.50,-25.50L115.50,-21.50L120.50,-17.00L137.00,-18.00L161.00,-21.50L212.00,-23.50L219.00,-25.50" />
        <path d="M227.50,-98.50L214.50,-101.00L209.00,-101.00L210.50,-99.50L233.50,-91.50L262.00,-83.50L288.50,-81.00L306.50,-81.00L312.50,-80.00L313.50,-78.50L311.00,-74.50L292.50,-56.00L260.50,-26.50L274.00,-28.50L289.50,-29.50L317.50,-30.00" />
        <path d="M355.50,-88.00L347.00,-92.00L344.00,-91.50L388.50,-72.50L401.00,-69.00L414.00,-67.00L414.00,-65.50L397.00,-54.50L382.00,-40.00L374.50,-30.00L372.00,-23.50L371.50,-19.00L373.50,-17.50L411.50,-25.00" />
        <path d="M458.50,-62.00L463.50,-63.50L479.50,-60.50L494.50,-54.50L500.00,-49.50L490.50,-40.00L482.50,-27.00L480.50,-22.00L479.00,-12.00L483.00,-10.00L487.00,-11.00L505.01,-18.50" />
        <path d="M540.51,-52.00L545.51,-51.00L564.51,-50.50L554.51,-37.00L549.01,-28.00L548.01,-24.50L548.51,-20.00L551.51,-19.50L561.01,-22.00L566.51,-24.50" />
      </g>
      <g id="f1" style="--index:1; opacity:0;" class="frame">
        <path d="M-137.50,-134.50L-131.50,-130.50L-90.50,-134.00L-74.50,-133.00L-69.00,-132.00L-56.00,-126.50L-51.50,-119.50L-51.00,-115.50L-54.00,-103.00L-57.50,-95.50L-93.50,-30.00L-103.50,-16.50L-94.00,-16.50L-44.00,-24.00L-29.50,-27.50L-16.50,-32.00" />
      </g>
      <g id="f2" style="--index:2; opacity:0;" class="frame">
        <path d="M-128.50,-132.50L-123.00,-134.00L-105.50,-136.00L-93.50,-136.00L-87.50,-135.00L-71.50,-130.50L-59.00,-125.50L-50.00,-118.50L-47.50,-111.00L-47.50,-106.00L-49.50,-94.50L-52.00,-87.50L-60.00,-72.00L-75.50,-47.50L-103.00,-11.50L-101.00,-11.50L-87.50,-16.50L-73.50,-20.00L-51.50,-23.00L-7.00,-25.50L4.50,-28.00L9.50,-30.00" />
        <path d="M29.50,-126.00L42.50,-125.00L69.00,-124.50L88.50,-123.00L102.50,-120.00L107.00,-115.50L107.50,-112.00L104.00,-102.50L69.50,-60.00L64.00,-49.00L66.00,-46.50L110.50,-50.50L122.50,-52.50L137.00,-56.50" />
      </g>
      <g id="f3" style="--index:3; opacity:0;" class="frame">
        <path d="M-119.00,-122.50L-125.50,-123.00L-124.50,-123.50L-112.00,-124.00L-93.50,-122.50L-72.50,-119.00L-59.00,-118.50L-36.50,-119.00L-27.50,-115.50L-26.50,-109.00L-28.00,-104.00L-42.00,-83.50L-80.00,-37.00L-88.00,-26.00L-93.50,-15.50L-92.00,-14.00L-80.00,-14.00L-42.50,-20.50L3.50,-27.00L22.00,-28.00" />
        <path d="M37.00,-120.00L31.50,-120.00L32.00,-118.00L33.50,-117.00L40.00,-114.00L49.00,-112.50L70.00,-110.00L114.50,-110.00L120.50,-108.50L121.50,-106.50L119.00,-98.50L98.50,-72.50L85.50,-49.00L81.00,-35.50L85.00,-34.00L89.00,-34.50L118.00,-40.50L146.00,-42.00L160.50,-45.50" />
        <path d="M174.00,-114.00L184.50,-111.00L208.00,-108.50L231.50,-104.00L238.50,-101.00L239.50,-99.50L239.50,-96.50L219.00,-77.00L211.00,-66.00L210.00,-63.00L211.50,-58.50L216.50,-56.50L226.00,-56.50L270.50,-63.50" />
      </g>
      <g id="f4" style="--index:4; opacity:0;" class="frame">
        <path d="M-111.50,-128.50L-104.50,-126.00L-75.50,-131.00L-50.00,-132.50L-34.00,-131.00L-10.50,-127.00L-4.00,-125.00L-1.50,-123.50L0.50,-120.50L0.00,-118.00L-5.00,-110.50L-30.50,-81.50L-45.00,-62.50L-65.50,-34.00L-84.50,-5.50L-83.00,-5.00L-70.00,-8.50L-42.50,-13.50L4.50,-16.00L12.00,-17.00L26.50,-21.00" />
        <path d="M65.50,-116.50L58.00,-117.00L59.00,-115.50L71.50,-109.00L84.00,-104.00L92.00,-102.00L109.00,-100.00L117.00,-100.00L142.50,-103.50L144.50,-103.50L145.50,-102.00L145.00,-100.50L135.00,-93.50L125.50,-85.00L87.50,-43.00L79.50,-35.50L74.50,-29.00L79.50,-28.00L102.50,-28.00L157.50,-29.00" />
        <path d="M172.50,-113.50L189.00,-110.50L223.00,-97.00L228.50,-95.50L238.00,-94.00L253.00,-94.50L260.00,-93.50L261.50,-89.50L261.00,-87.00L256.00,-80.00L251.50,-76.50L231.50,-64.50L219.50,-55.00L215.00,-50.50L210.00,-42.50L209.50,-39.50L215.00,-35.50L223.50,-34.50L264.50,-34.50L278.50,-35.00L285.00,-36.00" />
        <path d="M323.50,-92.50L318.00,-91.00L317.00,-89.00L318.00,-87.00L320.00,-85.50L333.00,-83.00L359.50,-81.50L364.00,-80.00L363.00,-78.00L347.50,-66.00L338.50,-56.00L334.50,-50.00L330.00,-41.00L329.50,-37.50L334.50,-34.00L339.00,-33.50L388.00,-44.50" />
      </g>
      <g id="f5" style="--index:5; opacity:0;" class="frame">
        <path d="M-88.00,-132.50L-84.00,-129.00L9.50,-124.00L10.50,-122.50L9.50,-117.50L-8.00,-95.00L-28.00,-71.00L-40.00,-52.50L-51.50,-30.50L-52.50,-26.00L-52.50,-20.00L-51.50,-18.50L-47.50,-17.00L-39.50,-15.50L-35.00,-15.50L-22.00,-16.00L7.50,-22.00L19.00,-22.00" />
        <path d="M83.00,-112.00L76.50,-112.50L74.50,-109.00L78.00,-104.00L85.00,-100.50L107.00,-95.50L131.50,-94.00L151.50,-94.00L155.50,-93.50L158.00,-91.50L131.50,-70.00L113.50,-50.50L101.50,-34.00L99.50,-27.00L101.00,-26.00L103.50,-26.00L135.00,-28.50L171.00,-27.50L186.00,-29.50L192.50,-32.50" />
        <path d="M192.50,-114.00L189.00,-110.00L194.50,-105.00L214.50,-97.00L223.50,-94.50L240.50,-92.50L267.00,-92.50L273.50,-91.00L275.00,-90.00L275.00,-86.00L260.00,-72.50L225.50,-31.50L227.00,-30.00L242.00,-30.00L269.50,-28.00L310.00,-21.00L326.00,-20.00" />
        <path d="M333.50,-92.50L326.00,-94.00L326.50,-92.50L329.50,-90.50L346.50,-81.00L362.50,-73.50L372.50,-71.50L382.00,-71.00L381.50,-68.50L372.00,-58.00L366.00,-49.00L359.00,-35.00L358.50,-32.00L361.50,-30.00L365.00,-30.00L382.50,-36.00L403.50,-40.00" />
        <path d="M445.50,-76.50L450.00,-74.00L460.50,-74.00L468.00,-72.50L476.50,-69.00L478.00,-67.00L468.50,-62.00L459.00,-50.00L453.50,-35.50L456.00,-30.00L459.50,-29.50L470.50,-32.00L493.50,-39.00" />
      </g>
    </g>
  </g>
</svg>