<?xml version="1.0" encoding="utf-8"?>
<svg width="1194" height="834" viewBox="-597 -417 1194 834" xmlns="http://www.w3.org/2000/svg">
  <style>
svg { background-color:#FFF2F2; }

#looom { --version:2; }

#t0 {
--visible:1; --timeOffset:0.125; --speed:1; --bookmarkIndex:-1; --latched:0; 
fill:#E47BC0; stroke-opacity:0; fill-opacity:1; stroke-width:49.64986; stroke-linecap:round; stroke-linejoin:round;
}
@keyframes t0 { 0% { opacity: 1; } 100% { opacity: 0; } }
#t0 .frame { animation:t0 1s calc(var(--index) * 1s) steps(1) infinite; }

#t1 {
--visible:1; --timeOffset:0; --speed:4; --bookmarkIndex:-1; --latched:0; 
stroke:#FFE600; stroke-opacity:1; fill-opacity:0; stroke-width:50; stroke-linecap:round; stroke-linejoin:round;
}
@keyframes t1 { 0% { opacity: 1; } 20% { opacity: 0; } }
#t1 .frame { animation:t1 1.25s calc(var(--index) * 0.25s) steps(1) infinite; }

#t2 {
--visible:1; --timeOffset:0.8; --speed:5; --bookmarkIndex:-1; --latched:0; 
stroke:#33FF00; stroke-opacity:1; fill-opacity:0; stroke-width:50; stroke-linecap:round; stroke-linejoin:round;
}
@keyframes t2 { 0% { opacity: 1; } 25% { opacity: 0; } }
#t2 .frame { animation:t2 0.8s calc(var(--index) * 0.2s) steps(1) infinite; }

#t3 {
--visible:1; --timeOffset:0.6666667; --speed:6; --bookmarkIndex:-1; --latched:0; 
stroke:#00BEFF; stroke-opacity:1; fill-opacity:0; stroke-width:50; stroke-linecap:round; stroke-linejoin:round;
}
@keyframes t3 { 0% { opacity: 1; } 25% { opacity: 0; } }
#t3 .frame { animation:t3 0.6666667s calc(var(--index) * 0.1666667s) steps(1) infinite; }

#t4 {
--visible:1; --timeOffset:0.8; --speed:5; --bookmarkIndex:-1; --latched:0; 
stroke:#00FF12; stroke-opacity:1; fill-opacity:0; stroke-width:50; stroke-linecap:round; stroke-linejoin:round;
}
@keyframes t4 { 0% { opacity: 1; } 25% { opacity: 0; } }
#t4 .frame { animation:t4 0.8s calc(var(--index) * 0.2s) steps(1) infinite; }

</style>
  <g id="w0" transform="translate(73.00 2.50) scale(0.12 0.12) rotate(-6.60)" class="weave">
    <g id="t0" transform="translate(74.01 -206.63)" class="thread">
      <g id="f0" style="--index:0; opacity:1;" class="frame">
        <path d="M-2644.27,-363.90L-2627.58,-325.45L-2617.25,-290.93L-2612.39,-270.34L-2599.02,-232.19L-2587.50,-211.00L-2568.97,-155.59L-2522.22,-40.54L-2502.50,1.54L-2456.38,86.30L-2433.03,125.35L-2394.51,182.56L-2345.99,240.66L-2330.53,255.49L-2308.41,270.92L-2299.01,278.48L-2289.32,282.71" />
        <path d="M-2095.44,-330.83L-2085.15,-343.82L-2081.22,-350.18L-2084.85,-347.15L-2092.41,-337.76L-2095.44,-330.83" />
        <path d="M-2143.22,-258.36L-2123.27,-293.51L-2095.44,-330.83L-2122.03,-269.88L-2170.04,-109.62L-2221.98,57.01L-2254.60,158.20L-2318.90,387.53L-2391.93,676.54L-2409.13,755.61L-2431.71,894.65L-2440.14,950.99L-2451.54,1077.60L-2458.47,1117.29L-2462.70,1126.98L-2466.63,1133.35" />
        <path d="M-1821.92,332.96L-1802.56,323.15L-1774.71,312.22L-1718.40,283.70L-1689.95,266.11L-1607.32,206.37L-1566.77,166.35L-1551.64,147.56L-1538.05,108.48L-1533.22,92.12L-1531.12,68.79L-1533.85,61.83L-1546.28,50.63L-1642.90,41.94L-1663.19,43.47L-1708.01,56.23L-1729.50,71.10L-1776.41,107.18L-1798.20,125.37L-1831.79,162.66L-1843.28,178.42L-1857.17,220.83L-1859.27,244.16L-1844.08,299.26L-1821.92,332.96" />
        <path d="M-1964.52,405.99L-1883.39,362.90L-1858.87,351.68L-1821.92,332.96L-1749.78,408.52L-1673.72,459.03L-1583.12,497.41L-1523.75,509.47L-1396.84,517.53L-1342.03,505.67" />
        <path d="M-609.60,267.64L-583.89,217.85L-578.16,191.49L-570.63,145.15L-575.50,124.55L-592.49,89.44L-594.92,79.14L-600.99,71.88L-608.18,151.84L-609.60,267.64" />
        <path d="M-700.61,96.50L-735.16,69.88L-748.19,65.35L-770.61,53.26L-780.01,45.69L-809.70,39.66L-826.36,38.16L-860.58,45.16L-878.13,53.66L-945.64,94.61L-983.15,138.25L-992.82,170.97L-1003.64,253.97L-1007.84,300.62L-992.31,389.35L-982.88,433.86L-955.56,503.50L-936.77,518.62L-893.75,525.85L-865.60,511.59L-804.46,466.71L-768.14,436.39L-709.14,377.88L-676.15,347.26L-627.44,291.18L-609.60,267.64L-609.88,282.69L-602.22,384.14L-592.19,421.99L-557.30,482.23L-532.14,501.29L-483.07,515.78" />
        <path d="M-86.90,517.84L-87.20,521.17L-86.90,517.84" />
        <path d="M-86.90,517.84L-86.90,517.84" />
        <path d="M-209.83,-430.34L-211.90,-370.07L-201.47,-224.70L-200.50,-160.79L-186.40,18.49L-170.84,144.17L-159.58,205.65L-132.22,312.23L-119.46,357.05L-95.77,429.71L-91.20,453.64L-85.40,501.18L-86.90,517.84L-73.34,441.81L-65.52,392.13L-54.95,349.42L-23.24,258.22L-2.08,209.74L41.77,133.08L67.79,105.19L111.67,65.47L132.56,57.27L186.17,58.74L214.96,74.76L281.33,121.04L312.25,150.70L369.86,219.70L396.85,255.72L427.20,328.98L434.20,363.20L438.20,430.74L438.83,461.03L444.63,508.57L446.16,528.86L457.69,550.05L467.39,554.29" />
        <path d="M1583.95,-581.30L1594.85,-590.40L1598.78,-596.76L1602.11,-596.46L1602.41,-599.80L1600.31,-576.47L1593.65,-577.07L1593.35,-573.74L1586.69,-574.34L1583.65,-577.97L1583.95,-581.30" />
        <path d="M1583.95,-581.30L1583.95,-581.30" />
        <path d="M839.81,-560.94L836.81,-527.62L841.68,-507.03L844.41,-500.06L853.21,-485.84L871.40,-464.05L877.16,-453.45L888.39,-428.93L902.99,-367.15L907.55,-343.23L920.31,-298.42L941.27,-232.71L949.47,-211.82L962.83,-173.67L971.33,-156.11L981.66,-121.60L987.12,-107.67L998.35,-83.15L1012.91,-58.32L1015.64,-51.36L1027.77,-36.83L1027.47,-33.50L1030.20,-26.54L1039.30,-15.64L1069.29,-12.94L1093.81,-24.17L1104.10,-26.60L1136.19,-47.23L1161.31,-65.12L1175.84,-77.25L1209.12,-111.20L1262.07,-176.98L1312.88,-256.37L1412.40,-391.85L1427.23,-407.31L1457.48,-444.90L1494.99,-488.54L1509.52,-500.67L1532.21,-528.86L1543.41,-541.29L1561.86,-559.78L1569.13,-565.84L1580.32,-578.27L1583.95,-581.30L1580.62,-581.60L1580.92,-584.94L1577.59,-585.24L1582.69,-641.88L1586.62,-648.24L1586.92,-651.57L1591.15,-661.27L1591.75,-667.93L1595.38,-670.97L1596.28,-680.96L1599.91,-683.99L1601.71,-703.98L1605.64,-710.35L1606.84,-723.68L1610.77,-730.04L1611.67,-740.04" />
        <path d="M1101.98,295.66L1065.03,295.69L1051.10,301.15L1047.47,304.19L1033.54,309.65L1029.61,316.01L1007.82,334.21L992.39,356.33L981.20,368.76L969.10,391.18L964.57,404.21L956.11,423.60L953.41,453.59L960.71,484.48L975.27,509.30L981.33,516.56L993.76,527.76L1003.76,528.66L1023.45,533.79L1070.09,537.98L1097.65,530.39L1111.58,524.92L1157.29,502.16L1185.44,487.90L1199.67,479.11L1224.79,461.21L1235.39,455.45L1253.85,436.96L1261.11,430.89L1273.80,401.81L1272.87,374.85L1270.74,361.22L1259.81,333.37L1231.62,310.68L1224.96,310.08L1205.27,304.95L1195.27,304.05L1171.65,305.28L1161.65,304.38L1130.76,311.68L1113.81,313.51L1083.82,310.82" />
      </g>
    </g>
    <g id="t1" transform="translate(74.01 -206.63)" class="thread">
      <g id="f0" style="--index:0; opacity:1;" class="frame" />
      <g id="f1" style="--index:1; opacity:0;" class="frame">
        <path d="M-2874.84,-1000.26L-2935.52,-1042.24L-2955.08,-1061.98L-2983.58,-1117.71L-2996.83,-1154.20L-3017.03,-1243.93L-3023.97,-1297.16L-3029.74,-1398.32L-3039.31,-1504.30" />
        <path d="M-2247.17,-949.43L-2220.12,-994.36L-2194.66,-1214.25L-2194.80,-1288.55L-2173.83,-1469.63L-2168.02,-1482.07L-2167.52,-1486.38" />
        <path d="M-1218.30,-1005.08L-1235.37,-1046.38L-1218.44,-1079.38L-1206.82,-1104.25L-1170.47,-1191.79L-1132.30,-1257.28L-1115.37,-1290.28L-1067.58,-1363.39L-1042.03,-1395.39L-955.76,-1499.00L-904.66,-1563.00L-883.92,-1591.18L-856.87,-1636.11L-846.25,-1652.36L-828.32,-1693.98L-817.20,-1714.54L-811.39,-1726.97" />
        <path d="M-68.03,-1090.37L-65.86,-1146.92L-54.74,-1167.48L-37.31,-1204.78L-9.76,-1254.03L85.82,-1400.26L212.07,-1547.30L311.28,-1649.42L355.58,-1692.35L433.55,-1761.97L535.57,-1850.65" />
        <path d="M1151.76,-1285.58L1157.75,-1337.32L1271.89,-1455.18L1325.81,-1505.74L1443.26,-1614.48L1659.75,-1786.04L1734.72,-1829.79" />
        <path d="M2190.89,-863.78L2205.50,-914.52L2278.16,-976.02L2325.77,-1009.83L2431.11,-1089.39L2599.80,-1187.83L2651.22,-1216.83L2752.06,-1257.59L2797.68,-1274.16" />
        <path d="M2118.14,-160.01L2157.76,-124.83L2185.95,-104.09L2259.56,-60.62L2304.99,-37.88L2415.10,-7.65L2586.06,25.25L2650.73,32.74L2756.52,62.46L2806.76,81.39" />
        <path d="M1876.25,532.93L1875.07,580.85L1883.33,660.46L1909.65,772.74L1953.72,882.70L1981.73,942.75L2093.10,1112.94L2156.41,1207.66L2186.91,1246.14" />
        <path d="M1213.32,1164.00L1199.71,1206.12L1177.79,1282.23L1171.30,1338.28L1169.76,1464.81L1180.02,1527.17L1212.97,1657.70L1235.66,1725.86L1277.23,1857.39L1291.80,1920.24L1320.62,2010.97" />
        <path d="M251.08,1323.49L239.28,1387.67L234.29,1430.78L216.50,1546.69L208.02,1619.99L196.67,1793.45L152.24,2177.17" />
        <path d="M-653.25,1397.93L-688.42,1437.55L-721.28,1494.92L-760.94,1573.34L-786.67,1644.64L-847.26,1790.55L-878.80,1874.29L-949.01,2027.82L-987.68,2097.63L-1054.89,2225.29L-1083.94,2287.47L-1149.34,2437.19" />
        <path d="M-1806.65,1434.79L-1858.07,1463.79L-1924.92,1512.85L-1968.71,1551.48L-2050.18,1651.28L-2095.47,1702.83L-2174.62,1820.38L-2216.10,1876.75L-2300.06,1998.11L-2345.85,2053.98" />
        <path d="M-2954.92,1502.83L-3001.53,1528.02L-3063.57,1573.27L-3102.05,1603.77L-3184.34,1672.89L-3223.32,1707.70L-3306.60,1785.45L-3345.59,1820.26L-3425.87,1872.13L-3467.67,1893.51" />
        <path d="M-3456.56,1042.77L-3629.02,1022.81L-3720.56,1020.95L-3812.60,1023.40L-3994.36,1046.05L-4061.03,1055.81L-4266.85,1097.52" />
        <path d="M-3726.46,430.40L-3770.08,429.72L-3795.95,426.73L-3824.13,405.99L-3966.87,280.23L-4066.67,198.76L-4113.91,153.97L-4241.40,47.45L-4302.08,5.47L-4325.95,-14.77" />
        <path d="M-3531.45,-385.93L-3584.01,-422.60L-3634.57,-476.51L-3661.25,-510.19L-3730.87,-588.16L-3757.06,-626.15L-3805.12,-701.62L-3827.50,-734.80" />
      </g>
      <g id="f2" style="--index:2; opacity:0;" class="frame">
        <path d="M-3427.12,-871.95L-3483.49,-913.43L-3510.67,-942.80L-3553.43,-1026.39L-3577.12,-1085.94L-3615.69,-1243.33L-3628.27,-1323.43L-3646.60,-1504.70L-3650.55,-1583.80L-3644.70,-1709.84L-3640.21,-1748.64L-3638.03,-1805.19" />
        <path d="M-2731.65,-1180.30L-2765.82,-1149.30L-2776.76,-1168.05L-2797.46,-1253.46L-2803.90,-1311.01L-2810.80,-1477.84L-2802.63,-1586.13L-2772.05,-1774.83L-2696.17,-2015.10L-2671.43,-2077.78L-2612.16,-2250.06" />
        <path d="M-1773.09,-1270.30L-1820.33,-1315.10L-1816.34,-1349.59L-1798.55,-1465.50L-1776.13,-1545.93L-1708.73,-1712.89L-1664.76,-1790.82L-1580.80,-1912.18L-1539.82,-1964.23L-1455.04,-2054.91L-1419.37,-2098.85L-1344.21,-2181.90" />
        <path d="M-406.88,-1409.24L-401.39,-1456.66L-368.03,-1518.34L-271.95,-1668.88L-204.92,-1757.25L-81.97,-1913.42L-22.25,-1976.41L81.77,-2082.34L130.88,-2129.09L232.40,-2213.46L284.82,-2251.08" />
        <path d="M775.71,-1433.98L809.74,-1539.27L849.73,-1582.71L970.99,-1686.64L1043.15,-1743.82L1212.03,-1881.57L1471.81,-2087.43L1547.78,-2139.81" />
        <path d="M2135.88,-1407.58L2211.17,-1416.34L2276.03,-1448.16L2532.13,-1584.54L2698.33,-1661.42L2771.80,-1692.24L2913.45,-1745.75L2981.61,-1768.44" />
        <path d="M2694.34,-381.67L2766.64,-364.56L2818.38,-358.57L2935.29,-349.40L3012.90,-340.42L3167.61,-318.13L3253.34,-303.84L3416.68,-280.56L3494.29,-271.57" />
        <path d="M2316.94,802.42L2323.38,859.96L2345.76,893.14L2421.00,997.98L2474.38,1065.33L2576.31,1203.84L2624.87,1275.00L2713.06,1381.34L2751.68,1425.13" />
        <path d="M1554.71,1762.80L1533.11,1873.90L1533.06,1987.50L1564.52,2130.96L1615.21,2259.17L1650.34,2333.15L1707.84,2440.30" />
        <path d="M435.21,2035.16L349.94,2130.15L327.20,2175.58L296.48,2290.00L291.12,2411.72L306.83,2540.25L323.21,2625.16L376.68,2880.40" />
        <path d="M-534.70,1883.54L-576.00,1900.61L-610.17,1931.61L-656.15,2026.78L-673.26,2099.07L-690.91,2289.28L-691.45,2407.19L-709.10,2597.40L-723.40,2683.13" />
        <path d="M-2007.60,2189.27L-2041.78,2220.26L-2065.01,2270.00L-2118.79,2394.86L-2144.53,2466.16L-2207.61,2633.63L-2261.39,2758.48" />
        <path d="M-2784.68,1692.95L-2850.53,1733.39L-2954.37,1800.01L-3050.09,1871.95L-3151.61,1956.32L-3215.65,2018.81L-3345.22,2156.74L-3401.63,2228.85" />
        <path d="M-3743.97,1525.08L-3803.52,1548.77L-3864.06,1581.08L-3972.71,1651.52L-4029.94,1692.96L-4140.09,1776.33L-4328.02,1890.02L-4397.69,1925.65L-4527.40,1989.28L-4586.94,2012.97" />
        <path d="M-4079.14,721.64L-4142.82,705.53L-4259.23,692.05L-4376.14,682.88L-4564.53,687.29L-4612.46,686.11L-4685.25,673.31" />
        <path d="M-3732.37,-160.14L-3761.37,-211.56L-3823.55,-240.60L-3886.72,-261.03L-3919.72,-277.95L-3982.71,-337.68L-4021.15,-420.78L-4072.48,-618.97" />
      </g>
      <g id="f3" style="--index:3; opacity:0;" class="frame">
        <path d="M-3358.96,-1724.82L-3388.46,-1771.93L-3387.28,-1819.85L-3372.80,-1944.89L-3355.19,-2021.49L-3287.80,-2188.47L-3237.01,-2287.45L-3115.39,-2469.99" />
        <path d="M-2143.75,-2069.11L-2183.87,-2099.97L-2177.06,-2121.03L-2113.84,-2214.21L-2062.24,-2282.51L-1907.12,-2452.43L-1822.84,-2538.80L-1651.97,-2693.79L-1540.32,-2790.10" />
        <path d="M-949.77,-1965.83L-940.47,-2008.44L-877.43,-2062.32L-824.51,-2104.25L-681.19,-2210.00L-590.28,-2278.12L-399.85,-2413.37L-300.32,-2480.49L-116.20,-2598.99" />
        <path d="M403.78,-1957.67L421.70,-1999.29L480.93,-2057.97L578.64,-2147.15L665.73,-2220.09L861.47,-2363.46L965.31,-2430.08L1171.99,-2554.71L1306.51,-2622.15L1421.79,-2674.34" />
        <path d="M2235.49,-2116.98L2282.10,-2142.17L2388.25,-2191.05L2466.54,-2225.68L2649.49,-2296.26L2923.97,-2364.97L3004.57,-2381.86L3160.47,-2407.50L3230.95,-2412.45" />
        <path d="M3244.53,-1510.79L3252.47,-1466.18L3302.03,-1403.64L3342.15,-1372.78L3458.38,-1320.00L3534.99,-1302.39L3719.89,-1276.61L4004.45,-1243.67L4085.87,-1229.87" />
        <path d="M3401.12,80.29L3346.70,135.16L3327.60,224.71L3327.73,299.00L3360.19,433.84L3400.12,504.00L3491.62,619.46L3555.61,670.56L3681.28,755.02L3741.96,797.00" />
        <path d="M3154.83,1830.09L3141.85,1942.19L3154.38,2135.90L3181.84,2313.85L3212.98,2422.32L3278.92,2569.77L3362.11,2719.22" />
        <path d="M2438.26,2660.32L2373.23,2731.44L2290.27,2844.17L2252.10,2909.66L2216.38,3067.19L2219.33,3154.92L2265.04,3326.25L2291.04,3403.54" />
        <path d="M1453.20,3092.43L1401.60,3160.74L1343.69,3245.79L1301.53,3345.77L1284.91,3413.76" />
        <path d="M112.54,2784.28L32.57,2871.15L-12.72,2922.71L-76.44,3020.19L-95.87,3074.75" />
        <path d="M-1039.55,2847.51L-1120.19,2977.99L-1185.41,3088.41L-1235.70,3183.09L-1279.17,3256.70L-1310.03,3296.82" />
        <path d="M-2360.83,2598.41L-2479.78,2720.09L-2574.18,2818.39L-2669.08,2921.00L-2719.18,2976.37" />
        <path d="M-3410.98,2385.07L-3551.99,2508.56L-3640.58,2594.43L-3732.48,2671.17L-3799.83,2724.54L-3859.38,2748.24" />
        <path d="M-4125.52,1839.19L-4184.56,1858.57L-4272.47,1900.82L-4356.07,1943.57L-4440.67,1994.95L-4487.27,2020.14" />
        <path d="M-4468.18,1100.42L-4596.21,1111.81L-4635.51,1111.63L-4712.62,1098.34L-4749.42,1076.60L-4811.92,1012.56" />
        <path d="M-4619.27,-123.01L-4675.64,-164.49L-4704.82,-176.61L-4762.19,-209.46L-4794.68,-230.70L-4838.93,-301.37L-4855.00,-351.29L-4871.70,-471.19" />
        <path d="M-4429.75,-891.91L-4477.81,-967.39L-4513.94,-1032.74L-4540.45,-1105.72L-4551.20,-1163.76L-4543.85,-1302.73L-4518.94,-1404.71L-4480.09,-1513.81L-4450.54,-1580.30" />
        <path d="M-4014.09,-1953.59L-3984.22,-1985.09L-3927.95,-2131.50L-3880.98,-2235.30" />
      </g>
      <g id="f4" style="--index:4; opacity:0;" class="frame" />
    </g>
    <g id="t2" transform="translate(74.01 -206.63)" class="thread">
      <g id="f0" style="--index:0; opacity:1;" class="frame">
        <path d="M-2874.84,-1000.26L-2935.52,-1042.24L-2955.08,-1061.98L-2983.58,-1117.71L-2996.83,-1154.20L-3017.03,-1243.93L-3023.97,-1297.16L-3029.74,-1398.32L-3039.31,-1504.30" />
        <path d="M-2247.17,-949.43L-2220.12,-994.36L-2194.66,-1214.25L-2194.80,-1288.55L-2173.83,-1469.63L-2168.02,-1482.07L-2167.52,-1486.38" />
        <path d="M-1218.30,-1005.08L-1235.37,-1046.38L-1218.44,-1079.38L-1206.82,-1104.25L-1170.47,-1191.79L-1132.30,-1257.28L-1115.37,-1290.28L-1067.58,-1363.39L-1042.03,-1395.39L-955.76,-1499.00L-904.66,-1563.00L-883.92,-1591.18L-856.87,-1636.11L-846.25,-1652.36L-828.32,-1693.98L-817.20,-1714.54L-811.39,-1726.97" />
        <path d="M-68.03,-1090.37L-65.86,-1146.92L-54.74,-1167.48L-37.31,-1204.78L-9.76,-1254.03L85.82,-1400.26L212.07,-1547.30L311.28,-1649.42L355.58,-1692.35L433.55,-1761.97L535.57,-1850.65" />
        <path d="M1151.76,-1285.58L1157.75,-1337.32L1271.89,-1455.18L1325.81,-1505.74L1443.26,-1614.48L1659.75,-1786.04L1734.72,-1829.79" />
        <path d="M2190.89,-863.78L2205.50,-914.52L2278.16,-976.02L2325.77,-1009.83L2431.11,-1089.39L2599.80,-1187.83L2651.22,-1216.83L2752.06,-1257.59L2797.68,-1274.16" />
        <path d="M2118.14,-160.01L2157.76,-124.83L2185.95,-104.09L2259.56,-60.62L2304.99,-37.88L2415.10,-7.65L2586.06,25.25L2650.73,32.74L2756.52,62.46L2806.76,81.39" />
        <path d="M1876.25,532.93L1875.07,580.85L1883.33,660.46L1909.65,772.74L1953.72,882.70L1981.73,942.75L2093.10,1112.94L2156.41,1207.66L2186.91,1246.14" />
        <path d="M1213.32,1164.00L1199.71,1206.12L1177.79,1282.23L1171.30,1338.28L1169.76,1464.81L1180.02,1527.17L1212.97,1657.70L1235.66,1725.86L1277.23,1857.39L1291.80,1920.24L1320.62,2010.97" />
        <path d="M251.08,1323.49L239.28,1387.67L234.29,1430.78L216.50,1546.69L208.02,1619.99L196.67,1793.45L152.24,2177.17" />
        <path d="M-653.25,1397.93L-688.42,1437.55L-721.28,1494.92L-760.94,1573.34L-786.67,1644.64L-847.26,1790.55L-878.80,1874.29L-949.01,2027.82L-987.68,2097.63L-1054.89,2225.29L-1083.94,2287.47L-1149.34,2437.19" />
        <path d="M-1806.65,1434.79L-1858.07,1463.79L-1924.92,1512.85L-1968.71,1551.48L-2050.18,1651.28L-2095.47,1702.83L-2174.62,1820.38L-2216.10,1876.75L-2300.06,1998.11L-2345.85,2053.98" />
        <path d="M-2954.92,1502.83L-3001.53,1528.02L-3063.57,1573.27L-3102.05,1603.77L-3184.34,1672.89L-3223.32,1707.70L-3306.60,1785.45L-3345.59,1820.26L-3425.87,1872.13L-3467.67,1893.51" />
        <path d="M-3456.56,1042.77L-3629.02,1022.81L-3720.56,1020.95L-3812.60,1023.40L-3994.36,1046.05L-4061.03,1055.81L-4266.85,1097.52" />
        <path d="M-3726.46,430.40L-3770.08,429.72L-3795.95,426.73L-3824.13,405.99L-3966.87,280.23L-4066.67,198.76L-4113.91,153.97L-4241.40,47.45L-4302.08,5.47L-4325.95,-14.77" />
        <path d="M-3531.45,-385.93L-3584.01,-422.60L-3634.57,-476.51L-3661.25,-510.19L-3730.87,-588.16L-3757.06,-626.15L-3805.12,-701.62L-3827.50,-734.80" />
      </g>
      <g id="f1" style="--index:1; opacity:0;" class="frame">
        <path d="M-3427.12,-871.95L-3483.49,-913.43L-3510.67,-942.80L-3553.43,-1026.39L-3577.12,-1085.94L-3615.69,-1243.33L-3628.27,-1323.43L-3646.60,-1504.70L-3650.55,-1583.80L-3644.70,-1709.84L-3640.21,-1748.64L-3638.03,-1805.19" />
        <path d="M-2731.65,-1180.30L-2765.82,-1149.30L-2776.76,-1168.05L-2797.46,-1253.46L-2803.90,-1311.01L-2810.80,-1477.84L-2802.63,-1586.13L-2772.05,-1774.83L-2696.17,-2015.10L-2671.43,-2077.78L-2612.16,-2250.06" />
        <path d="M-1773.09,-1270.30L-1820.33,-1315.10L-1816.34,-1349.59L-1798.55,-1465.50L-1776.13,-1545.93L-1708.73,-1712.89L-1664.76,-1790.82L-1580.80,-1912.18L-1539.82,-1964.23L-1455.04,-2054.91L-1419.37,-2098.85L-1344.21,-2181.90" />
        <path d="M-406.88,-1409.24L-401.39,-1456.66L-368.03,-1518.34L-271.95,-1668.88L-204.92,-1757.25L-81.97,-1913.42L-22.25,-1976.41L81.77,-2082.34L130.88,-2129.09L232.40,-2213.46L284.82,-2251.08" />
        <path d="M775.71,-1433.98L809.74,-1539.27L849.73,-1582.71L970.99,-1686.64L1043.15,-1743.82L1212.03,-1881.57L1471.81,-2087.43L1547.78,-2139.81" />
        <path d="M2135.88,-1407.58L2211.17,-1416.34L2276.03,-1448.16L2532.13,-1584.54L2698.33,-1661.42L2771.80,-1692.24L2913.45,-1745.75L2981.61,-1768.44" />
        <path d="M2694.34,-381.67L2766.64,-364.56L2818.38,-358.57L2935.29,-349.40L3012.90,-340.42L3167.61,-318.13L3253.34,-303.84L3416.68,-280.56L3494.29,-271.57" />
        <path d="M2316.94,802.42L2323.38,859.96L2345.76,893.14L2421.00,997.98L2474.38,1065.33L2576.31,1203.84L2624.87,1275.00L2713.06,1381.34L2751.68,1425.13" />
        <path d="M1554.71,1762.80L1533.11,1873.90L1533.06,1987.50L1564.52,2130.96L1615.21,2259.17L1650.34,2333.15L1707.84,2440.30" />
        <path d="M435.21,2035.16L349.94,2130.15L327.20,2175.58L296.48,2290.00L291.12,2411.72L306.83,2540.25L323.21,2625.16L376.68,2880.40" />
        <path d="M-534.70,1883.54L-576.00,1900.61L-610.17,1931.61L-656.15,2026.78L-673.26,2099.07L-690.91,2289.28L-691.45,2407.19L-709.10,2597.40L-723.40,2683.13" />
        <path d="M-2007.60,2189.27L-2041.78,2220.26L-2065.01,2270.00L-2118.79,2394.86L-2144.53,2466.16L-2207.61,2633.63L-2261.39,2758.48" />
        <path d="M-2784.68,1692.95L-2850.53,1733.39L-2954.37,1800.01L-3050.09,1871.95L-3151.61,1956.32L-3215.65,2018.81L-3345.22,2156.74L-3401.63,2228.85" />
        <path d="M-3743.97,1525.08L-3803.52,1548.77L-3864.06,1581.08L-3972.71,1651.52L-4029.94,1692.96L-4140.09,1776.33L-4328.02,1890.02L-4397.69,1925.65L-4527.40,1989.28L-4586.94,2012.97" />
        <path d="M-4079.14,721.64L-4142.82,705.53L-4259.23,692.05L-4376.14,682.88L-4564.53,687.29L-4612.46,686.11L-4685.25,673.31" />
        <path d="M-3732.37,-160.14L-3761.37,-211.56L-3823.55,-240.60L-3886.72,-261.03L-3919.72,-277.95L-3982.71,-337.68L-4021.15,-420.78L-4072.48,-618.97" />
      </g>
      <g id="f2" style="--index:2; opacity:0;" class="frame">
        <path d="M-3358.96,-1724.82L-3388.46,-1771.93L-3387.28,-1819.85L-3372.80,-1944.89L-3355.19,-2021.49L-3287.80,-2188.47L-3237.01,-2287.45L-3115.39,-2469.99" />
        <path d="M-2143.75,-2069.11L-2183.87,-2099.97L-2177.06,-2121.03L-2113.84,-2214.21L-2062.24,-2282.51L-1907.12,-2452.43L-1822.84,-2538.80L-1651.97,-2693.79L-1540.32,-2790.10" />
        <path d="M-949.77,-1965.83L-940.47,-2008.44L-877.43,-2062.32L-824.51,-2104.25L-681.19,-2210.00L-590.28,-2278.12L-399.85,-2413.37L-300.32,-2480.49L-116.20,-2598.99" />
        <path d="M403.78,-1957.67L421.70,-1999.29L480.93,-2057.97L578.64,-2147.15L665.73,-2220.09L861.47,-2363.46L965.31,-2430.08L1171.99,-2554.71L1306.51,-2622.15L1421.79,-2674.34" />
        <path d="M2235.49,-2116.98L2282.10,-2142.17L2388.25,-2191.05L2466.54,-2225.68L2649.49,-2296.26L2923.97,-2364.97L3004.57,-2381.86L3160.47,-2407.50L3230.95,-2412.45" />
        <path d="M3244.53,-1510.79L3252.47,-1466.18L3302.03,-1403.64L3342.15,-1372.78L3458.38,-1320.00L3534.99,-1302.39L3719.89,-1276.61L4004.45,-1243.67L4085.87,-1229.87" />
        <path d="M3401.12,80.29L3346.70,135.16L3327.60,224.71L3327.73,299.00L3360.19,433.84L3400.12,504.00L3491.62,619.46L3555.61,670.56L3681.28,755.02L3741.96,797.00" />
        <path d="M3154.83,1830.09L3141.85,1942.19L3154.38,2135.90L3181.84,2313.85L3212.98,2422.32L3278.92,2569.77L3362.11,2719.22" />
        <path d="M2438.26,2660.32L2373.23,2731.44L2290.27,2844.17L2252.10,2909.66L2216.38,3067.19L2219.33,3154.92L2265.04,3326.25L2291.04,3403.54" />
        <path d="M1453.20,3092.43L1401.60,3160.74L1343.69,3245.79L1301.53,3345.77L1284.91,3413.76" />
        <path d="M112.54,2784.28L32.57,2871.15L-12.72,2922.71L-76.44,3020.19L-95.87,3074.75" />
        <path d="M-1039.55,2847.51L-1120.19,2977.99L-1185.41,3088.41L-1235.70,3183.09L-1279.17,3256.70L-1310.03,3296.82" />
        <path d="M-2360.83,2598.41L-2479.78,2720.09L-2574.18,2818.39L-2669.08,2921.00L-2719.18,2976.37" />
        <path d="M-3410.98,2385.07L-3551.99,2508.56L-3640.58,2594.43L-3732.48,2671.17L-3799.83,2724.54L-3859.38,2748.24" />
        <path d="M-4125.52,1839.19L-4184.56,1858.57L-4272.47,1900.82L-4356.07,1943.57L-4440.67,1994.95L-4487.27,2020.14" />
        <path d="M-4468.18,1100.42L-4596.21,1111.81L-4635.51,1111.63L-4712.62,1098.34L-4749.42,1076.60L-4811.92,1012.56" />
        <path d="M-4619.27,-123.01L-4675.64,-164.49L-4704.82,-176.61L-4762.19,-209.46L-4794.68,-230.70L-4838.93,-301.37L-4855.00,-351.29L-4871.70,-471.19" />
        <path d="M-4429.75,-891.91L-4477.81,-967.39L-4513.94,-1032.74L-4540.45,-1105.72L-4551.20,-1163.76L-4543.85,-1302.73L-4518.94,-1404.71L-4480.09,-1513.81L-4450.54,-1580.30" />
        <path d="M-4014.09,-1953.59L-3984.22,-1985.09L-3927.95,-2131.50L-3880.98,-2235.30" />
      </g>
      <g id="f3" style="--index:3; opacity:0;" class="frame" />
    </g>
    <g id="t3" transform="translate(74.01 -206.63)" class="thread">
      <g id="f0" style="--index:0; opacity:1;" class="frame">
        <path d="M-2874.84,-1000.26L-2935.52,-1042.24L-2955.08,-1061.98L-2983.58,-1117.71L-2996.83,-1154.20L-3017.03,-1243.93L-3023.97,-1297.16L-3029.74,-1398.32L-3039.31,-1504.30" />
        <path d="M-2247.17,-949.43L-2220.12,-994.36L-2194.66,-1214.25L-2194.80,-1288.55L-2173.83,-1469.63L-2168.02,-1482.07L-2167.52,-1486.38" />
        <path d="M-1218.30,-1005.08L-1235.37,-1046.38L-1218.44,-1079.38L-1206.82,-1104.25L-1170.47,-1191.79L-1132.30,-1257.28L-1115.37,-1290.28L-1067.58,-1363.39L-1042.03,-1395.39L-955.76,-1499.00L-904.66,-1563.00L-883.92,-1591.18L-856.87,-1636.11L-846.25,-1652.36L-828.32,-1693.98L-817.20,-1714.54L-811.39,-1726.97" />
        <path d="M-68.03,-1090.37L-65.86,-1146.92L-54.74,-1167.48L-37.31,-1204.78L-9.76,-1254.03L85.82,-1400.26L212.07,-1547.30L311.28,-1649.42L355.58,-1692.35L433.55,-1761.97L535.57,-1850.65" />
        <path d="M1151.76,-1285.58L1157.75,-1337.32L1271.89,-1455.18L1325.81,-1505.74L1443.26,-1614.48L1659.75,-1786.04L1734.72,-1829.79" />
        <path d="M2190.89,-863.78L2205.50,-914.52L2278.16,-976.02L2325.77,-1009.83L2431.11,-1089.39L2599.80,-1187.83L2651.22,-1216.83L2752.06,-1257.59L2797.68,-1274.16" />
        <path d="M2118.14,-160.01L2157.76,-124.83L2185.95,-104.09L2259.56,-60.62L2304.99,-37.88L2415.10,-7.65L2586.06,25.25L2650.73,32.74L2756.52,62.46L2806.76,81.39" />
        <path d="M1876.25,532.93L1875.07,580.85L1883.33,660.46L1909.65,772.74L1953.72,882.70L1981.73,942.75L2093.10,1112.94L2156.41,1207.66L2186.91,1246.14" />
        <path d="M1213.32,1164.00L1199.71,1206.12L1177.79,1282.23L1171.30,1338.28L1169.76,1464.81L1180.02,1527.17L1212.97,1657.70L1235.66,1725.86L1277.23,1857.39L1291.80,1920.24L1320.62,2010.97" />
        <path d="M251.08,1323.49L239.28,1387.67L234.29,1430.78L216.50,1546.69L208.02,1619.99L196.67,1793.45L152.24,2177.17" />
        <path d="M-653.25,1397.93L-688.42,1437.55L-721.28,1494.92L-760.94,1573.34L-786.67,1644.64L-847.26,1790.55L-878.80,1874.29L-949.01,2027.82L-987.68,2097.63L-1054.89,2225.29L-1083.94,2287.47L-1149.34,2437.19" />
        <path d="M-1806.65,1434.79L-1858.07,1463.79L-1924.92,1512.85L-1968.71,1551.48L-2050.18,1651.28L-2095.47,1702.83L-2174.62,1820.38L-2216.10,1876.75L-2300.06,1998.11L-2345.85,2053.98" />
        <path d="M-2954.92,1502.83L-3001.53,1528.02L-3063.57,1573.27L-3102.05,1603.77L-3184.34,1672.89L-3223.32,1707.70L-3306.60,1785.45L-3345.59,1820.26L-3425.87,1872.13L-3467.67,1893.51" />
        <path d="M-3456.56,1042.77L-3629.02,1022.81L-3720.56,1020.95L-3812.60,1023.40L-3994.36,1046.05L-4061.03,1055.81L-4266.85,1097.52" />
        <path d="M-3726.46,430.40L-3770.08,429.72L-3795.95,426.73L-3824.13,405.99L-3966.87,280.23L-4066.67,198.76L-4113.91,153.97L-4241.40,47.45L-4302.08,5.47L-4325.95,-14.77" />
        <path d="M-3531.45,-385.93L-3584.01,-422.60L-3634.57,-476.51L-3661.25,-510.19L-3730.87,-588.16L-3757.06,-626.15L-3805.12,-701.62L-3827.50,-734.80" />
      </g>
      <g id="f1" style="--index:1; opacity:0;" class="frame">
        <path d="M-3427.12,-871.95L-3483.49,-913.43L-3510.67,-942.80L-3553.43,-1026.39L-3577.12,-1085.94L-3615.69,-1243.33L-3628.27,-1323.43L-3646.60,-1504.70L-3650.55,-1583.80L-3644.70,-1709.84L-3640.21,-1748.64L-3638.03,-1805.19" />
        <path d="M-2731.65,-1180.30L-2765.82,-1149.30L-2776.76,-1168.05L-2797.46,-1253.46L-2803.90,-1311.01L-2810.80,-1477.84L-2802.63,-1586.13L-2772.05,-1774.83L-2696.17,-2015.10L-2671.43,-2077.78L-2612.16,-2250.06" />
        <path d="M-1773.09,-1270.30L-1820.33,-1315.10L-1816.34,-1349.59L-1798.55,-1465.50L-1776.13,-1545.93L-1708.73,-1712.89L-1664.76,-1790.82L-1580.80,-1912.18L-1539.82,-1964.23L-1455.04,-2054.91L-1419.37,-2098.85L-1344.21,-2181.90" />
        <path d="M-406.88,-1409.24L-401.39,-1456.66L-368.03,-1518.34L-271.95,-1668.88L-204.92,-1757.25L-81.97,-1913.42L-22.25,-1976.41L81.77,-2082.34L130.88,-2129.09L232.40,-2213.46L284.82,-2251.08" />
        <path d="M775.71,-1433.98L809.74,-1539.27L849.73,-1582.71L970.99,-1686.64L1043.15,-1743.82L1212.03,-1881.57L1471.81,-2087.43L1547.78,-2139.81" />
        <path d="M2135.88,-1407.58L2211.17,-1416.34L2276.03,-1448.16L2532.13,-1584.54L2698.33,-1661.42L2771.80,-1692.24L2913.45,-1745.75L2981.61,-1768.44" />
        <path d="M2694.34,-381.67L2766.64,-364.56L2818.38,-358.57L2935.29,-349.40L3012.90,-340.42L3167.61,-318.13L3253.34,-303.84L3416.68,-280.56L3494.29,-271.57" />
        <path d="M2316.94,802.42L2323.38,859.96L2345.76,893.14L2421.00,997.98L2474.38,1065.33L2576.31,1203.84L2624.87,1275.00L2713.06,1381.34L2751.68,1425.13" />
        <path d="M1554.71,1762.80L1533.11,1873.90L1533.06,1987.50L1564.52,2130.96L1615.21,2259.17L1650.34,2333.15L1707.84,2440.30" />
        <path d="M435.21,2035.16L349.94,2130.15L327.20,2175.58L296.48,2290.00L291.12,2411.72L306.83,2540.25L323.21,2625.16L376.68,2880.40" />
        <path d="M-534.70,1883.54L-576.00,1900.61L-610.17,1931.61L-656.15,2026.78L-673.26,2099.07L-690.91,2289.28L-691.45,2407.19L-709.10,2597.40L-723.40,2683.13" />
        <path d="M-2007.60,2189.27L-2041.78,2220.26L-2065.01,2270.00L-2118.79,2394.86L-2144.53,2466.16L-2207.61,2633.63L-2261.39,2758.48" />
        <path d="M-2784.68,1692.95L-2850.53,1733.39L-2954.37,1800.01L-3050.09,1871.95L-3151.61,1956.32L-3215.65,2018.81L-3345.22,2156.74L-3401.63,2228.85" />
        <path d="M-3743.97,1525.08L-3803.52,1548.77L-3864.06,1581.08L-3972.71,1651.52L-4029.94,1692.96L-4140.09,1776.33L-4328.02,1890.02L-4397.69,1925.65L-4527.40,1989.28L-4586.94,2012.97" />
        <path d="M-4079.14,721.64L-4142.82,705.53L-4259.23,692.05L-4376.14,682.88L-4564.53,687.29L-4612.46,686.11L-4685.25,673.31" />
        <path d="M-3732.37,-160.14L-3761.37,-211.56L-3823.55,-240.60L-3886.72,-261.03L-3919.72,-277.95L-3982.71,-337.68L-4021.15,-420.78L-4072.48,-618.97" />
        <path d="M-532.19,-1572.30L-574.80,-1581.61L-580.93,-1604.16L-572.31,-1603.16" />
      </g>
      <g id="f2" style="--index:2; opacity:0;" class="frame">
        <path d="M-3358.96,-1724.82L-3388.46,-1771.93L-3387.28,-1819.85L-3372.80,-1944.89L-3355.19,-2021.49L-3287.80,-2188.47L-3237.01,-2287.45L-3115.39,-2469.99" />
        <path d="M-2143.75,-2069.11L-2183.87,-2099.97L-2177.06,-2121.03L-2113.84,-2214.21L-2062.24,-2282.51L-1907.12,-2452.43L-1822.84,-2538.80L-1651.97,-2693.79L-1540.32,-2790.10" />
        <path d="M-949.77,-1965.83L-940.47,-2008.44L-877.43,-2062.32L-824.51,-2104.25L-681.19,-2210.00L-590.28,-2278.12L-399.85,-2413.37L-300.32,-2480.49L-116.20,-2598.99" />
        <path d="M403.78,-1957.67L421.70,-1999.29L480.93,-2057.97L578.64,-2147.15L665.73,-2220.09L861.47,-2363.46L965.31,-2430.08L1171.99,-2554.71L1306.51,-2622.15L1421.79,-2674.34" />
        <path d="M2235.49,-2116.98L2282.10,-2142.17L2388.25,-2191.05L2466.54,-2225.68L2649.49,-2296.26L2923.97,-2364.97L3004.57,-2381.86L3160.47,-2407.50L3230.95,-2412.45" />
        <path d="M3244.53,-1510.79L3252.47,-1466.18L3302.03,-1403.64L3342.15,-1372.78L3458.38,-1320.00L3534.99,-1302.39L3719.89,-1276.61L4004.45,-1243.67L4085.87,-1229.87" />
        <path d="M3401.12,80.29L3346.70,135.16L3327.60,224.71L3327.73,299.00L3360.19,433.84L3400.12,504.00L3491.62,619.46L3555.61,670.56L3681.28,755.02L3741.96,797.00" />
        <path d="M3154.83,1830.09L3141.85,1942.19L3154.38,2135.90L3181.84,2313.85L3212.98,2422.32L3278.92,2569.77L3362.11,2719.22" />
        <path d="M2438.26,2660.32L2373.23,2731.44L2290.27,2844.17L2252.10,2909.66L2216.38,3067.19L2219.33,3154.92L2265.04,3326.25L2291.04,3403.54" />
        <path d="M1453.20,3092.43L1401.60,3160.74L1343.69,3245.79L1301.53,3345.77L1284.91,3413.76" />
        <path d="M112.54,2784.28L32.57,2871.15L-12.72,2922.71L-76.44,3020.19L-95.87,3074.75" />
        <path d="M-1039.55,2847.51L-1120.19,2977.99L-1185.41,3088.41L-1235.70,3183.09L-1279.17,3256.70L-1310.03,3296.82" />
        <path d="M-2360.83,2598.41L-2479.78,2720.09L-2574.18,2818.39L-2669.08,2921.00L-2719.18,2976.37" />
        <path d="M-3410.98,2385.07L-3551.99,2508.56L-3640.58,2594.43L-3732.48,2671.17L-3799.83,2724.54L-3859.38,2748.24" />
        <path d="M-4125.52,1839.19L-4184.56,1858.57L-4272.47,1900.82L-4356.07,1943.57L-4440.67,1994.95L-4487.27,2020.14" />
        <path d="M-4468.18,1100.42L-4596.21,1111.81L-4635.51,1111.63L-4712.62,1098.34L-4749.42,1076.60L-4811.92,1012.56" />
        <path d="M-4619.27,-123.01L-4675.64,-164.49L-4704.82,-176.61L-4762.19,-209.46L-4794.68,-230.70L-4838.93,-301.37L-4855.00,-351.29L-4871.70,-471.19" />
        <path d="M-4429.75,-891.91L-4477.81,-967.39L-4513.94,-1032.74L-4540.45,-1105.72L-4551.20,-1163.76L-4543.85,-1302.73L-4518.94,-1404.71L-4480.09,-1513.81L-4450.54,-1580.30" />
        <path d="M-4014.09,-1953.59L-3984.22,-1985.09L-3927.95,-2131.50L-3880.98,-2235.30" />
      </g>
      <g id="f3" style="--index:3; opacity:0;" class="frame" />
    </g>
    <g id="t4" transform="translate(74.01 -206.63)" class="thread">
      <g id="f0" style="--index:0; opacity:1;" class="frame">
        <path d="M-2874.84,-1000.26L-2935.52,-1042.24L-2955.08,-1061.98L-2983.58,-1117.71L-2996.83,-1154.20L-3017.03,-1243.93L-3023.97,-1297.16L-3029.74,-1398.32L-3039.31,-1504.30" />
        <path d="M-2247.17,-949.43L-2220.12,-994.36L-2194.66,-1214.25L-2194.80,-1288.55L-2173.83,-1469.63L-2168.02,-1482.07L-2167.52,-1486.38" />
        <path d="M-1218.30,-1005.08L-1235.37,-1046.38L-1218.44,-1079.38L-1206.82,-1104.25L-1170.47,-1191.79L-1132.30,-1257.28L-1115.37,-1290.28L-1067.58,-1363.39L-1042.03,-1395.39L-955.76,-1499.00L-904.66,-1563.00L-883.92,-1591.18L-856.87,-1636.11L-846.25,-1652.36L-828.32,-1693.98L-817.20,-1714.54L-811.39,-1726.97" />
        <path d="M-68.03,-1090.37L-65.86,-1146.92L-54.74,-1167.48L-37.31,-1204.78L-9.76,-1254.03L85.82,-1400.26L212.07,-1547.30L311.28,-1649.42L355.58,-1692.35L433.55,-1761.97L535.57,-1850.65" />
        <path d="M1151.76,-1285.58L1157.75,-1337.32L1271.89,-1455.18L1325.81,-1505.74L1443.26,-1614.48L1659.75,-1786.04L1734.72,-1829.79" />
        <path d="M2190.89,-863.78L2205.50,-914.52L2278.16,-976.02L2325.77,-1009.83L2431.11,-1089.39L2599.80,-1187.83L2651.22,-1216.83L2752.06,-1257.59L2797.68,-1274.16" />
        <path d="M2118.14,-160.01L2157.76,-124.83L2185.95,-104.09L2259.56,-60.62L2304.99,-37.88L2415.10,-7.65L2586.06,25.25L2650.73,32.74L2756.52,62.46L2806.76,81.39" />
        <path d="M1876.25,532.93L1875.07,580.85L1883.33,660.46L1909.65,772.74L1953.72,882.70L1981.73,942.75L2093.10,1112.94L2156.41,1207.66L2186.91,1246.14" />
        <path d="M1213.32,1164.00L1199.71,1206.12L1177.79,1282.23L1171.30,1338.28L1169.76,1464.81L1180.02,1527.17L1212.97,1657.70L1235.66,1725.86L1277.23,1857.39L1291.80,1920.24L1320.62,2010.97" />
        <path d="M251.08,1323.49L239.28,1387.67L234.29,1430.78L216.50,1546.69L208.02,1619.99L196.67,1793.45L152.24,2177.17" />
        <path d="M-653.25,1397.93L-688.42,1437.55L-721.28,1494.92L-760.94,1573.34L-786.67,1644.64L-847.26,1790.55L-878.80,1874.29L-949.01,2027.82L-987.68,2097.63L-1054.89,2225.29L-1083.94,2287.47L-1149.34,2437.19" />
        <path d="M-1806.65,1434.79L-1858.07,1463.79L-1924.92,1512.85L-1968.71,1551.48L-2050.18,1651.28L-2095.47,1702.83L-2174.62,1820.38L-2216.10,1876.75L-2300.06,1998.11L-2345.85,2053.98" />
        <path d="M-2954.92,1502.83L-3001.53,1528.02L-3063.57,1573.27L-3102.05,1603.77L-3184.34,1672.89L-3223.32,1707.70L-3306.60,1785.45L-3345.59,1820.26L-3425.87,1872.13L-3467.67,1893.51" />
        <path d="M-3456.56,1042.77L-3629.02,1022.81L-3720.56,1020.95L-3812.60,1023.40L-3994.36,1046.05L-4061.03,1055.81L-4266.85,1097.52" />
        <path d="M-3726.46,430.40L-3770.08,429.72L-3795.95,426.73L-3824.13,405.99L-3966.87,280.23L-4066.67,198.76L-4113.91,153.97L-4241.40,47.45L-4302.08,5.47L-4325.95,-14.77" />
        <path d="M-3531.45,-385.93L-3584.01,-422.60L-3634.57,-476.51L-3661.25,-510.19L-3730.87,-588.16L-3757.06,-626.15L-3805.12,-701.62L-3827.50,-734.80" />
      </g>
      <g id="f1" style="--index:1; opacity:0;" class="frame">
        <path d="M-3427.12,-871.95L-3483.49,-913.43L-3510.67,-942.80L-3553.43,-1026.39L-3577.12,-1085.94L-3615.69,-1243.33L-3628.27,-1323.43L-3646.60,-1504.70L-3650.55,-1583.80L-3644.70,-1709.84L-3640.21,-1748.64L-3638.03,-1805.19" />
        <path d="M-2731.65,-1180.30L-2765.82,-1149.30L-2776.76,-1168.05L-2797.46,-1253.46L-2803.90,-1311.01L-2810.80,-1477.84L-2802.63,-1586.13L-2772.05,-1774.83L-2696.17,-2015.10L-2671.43,-2077.78L-2612.16,-2250.06" />
        <path d="M-1773.09,-1270.30L-1820.33,-1315.10L-1816.34,-1349.59L-1798.55,-1465.50L-1776.13,-1545.93L-1708.73,-1712.89L-1664.76,-1790.82L-1580.80,-1912.18L-1539.82,-1964.23L-1455.04,-2054.91L-1419.37,-2098.85L-1344.21,-2181.90" />
        <path d="M-406.88,-1409.24L-401.39,-1456.66L-368.03,-1518.34L-271.95,-1668.88L-204.92,-1757.25L-81.97,-1913.42L-22.25,-1976.41L81.77,-2082.34L130.88,-2129.09L232.40,-2213.46L284.82,-2251.08" />
        <path d="M775.71,-1433.98L809.74,-1539.27L849.73,-1582.71L970.99,-1686.64L1043.15,-1743.82L1212.03,-1881.57L1471.81,-2087.43L1547.78,-2139.81" />
        <path d="M2135.88,-1407.58L2211.17,-1416.34L2276.03,-1448.16L2532.13,-1584.54L2698.33,-1661.42L2771.80,-1692.24L2913.45,-1745.75L2981.61,-1768.44" />
        <path d="M2694.34,-381.67L2766.64,-364.56L2818.38,-358.57L2935.29,-349.40L3012.90,-340.42L3167.61,-318.13L3253.34,-303.84L3416.68,-280.56L3494.29,-271.57" />
        <path d="M2316.94,802.42L2323.38,859.96L2345.76,893.14L2421.00,997.98L2474.38,1065.33L2576.31,1203.84L2624.87,1275.00L2713.06,1381.34L2751.68,1425.13" />
        <path d="M1554.71,1762.80L1533.11,1873.90L1533.06,1987.50L1564.52,2130.96L1615.21,2259.17L1650.34,2333.15L1707.84,2440.30" />
        <path d="M435.21,2035.16L349.94,2130.15L327.20,2175.58L296.48,2290.00L291.12,2411.72L306.83,2540.25L323.21,2625.16L376.68,2880.40" />
        <path d="M-534.70,1883.54L-576.00,1900.61L-610.17,1931.61L-656.15,2026.78L-673.26,2099.07L-690.91,2289.28L-691.45,2407.19L-709.10,2597.40L-723.40,2683.13" />
        <path d="M-2007.60,2189.27L-2041.78,2220.26L-2065.01,2270.00L-2118.79,2394.86L-2144.53,2466.16L-2207.61,2633.63L-2261.39,2758.48" />
        <path d="M-2784.68,1692.95L-2850.53,1733.39L-2954.37,1800.01L-3050.09,1871.95L-3151.61,1956.32L-3215.65,2018.81L-3345.22,2156.74L-3401.63,2228.85" />
        <path d="M-3743.97,1525.08L-3803.52,1548.77L-3864.06,1581.08L-3972.71,1651.52L-4029.94,1692.96L-4140.09,1776.33L-4328.02,1890.02L-4397.69,1925.65L-4527.40,1989.28L-4586.94,2012.97" />
        <path d="M-4079.14,721.64L-4142.82,705.53L-4259.23,692.05L-4376.14,682.88L-4564.53,687.29L-4612.46,686.11L-4685.25,673.31" />
        <path d="M-3732.37,-160.14L-3761.37,-211.56L-3823.55,-240.60L-3886.72,-261.03L-3919.72,-277.95L-3982.71,-337.68L-4021.15,-420.78L-4072.48,-618.97" />
        <path d="M-532.19,-1572.30L-574.80,-1581.61L-580.93,-1604.16L-572.31,-1603.16" />
      </g>
      <g id="f2" style="--index:2; opacity:0;" class="frame">
        <path d="M-3358.96,-1724.82L-3388.46,-1771.93L-3387.28,-1819.85L-3372.80,-1944.89L-3355.19,-2021.49L-3287.80,-2188.47L-3237.01,-2287.45L-3115.39,-2469.99" />
        <path d="M-2143.75,-2069.11L-2183.87,-2099.97L-2177.06,-2121.03L-2113.84,-2214.21L-2062.24,-2282.51L-1907.12,-2452.43L-1822.84,-2538.80L-1651.97,-2693.79L-1540.32,-2790.10" />
        <path d="M-949.77,-1965.83L-940.47,-2008.44L-877.43,-2062.32L-824.51,-2104.25L-681.19,-2210.00L-590.28,-2278.12L-399.85,-2413.37L-300.32,-2480.49L-116.20,-2598.99" />
        <path d="M403.78,-1957.67L421.70,-1999.29L480.93,-2057.97L578.64,-2147.15L665.73,-2220.09L861.47,-2363.46L965.31,-2430.08L1171.99,-2554.71L1306.51,-2622.15L1421.79,-2674.34" />
        <path d="M2235.49,-2116.98L2282.10,-2142.17L2388.25,-2191.05L2466.54,-2225.68L2649.49,-2296.26L2923.97,-2364.97L3004.57,-2381.86L3160.47,-2407.50L3230.95,-2412.45" />
        <path d="M3244.53,-1510.79L3252.47,-1466.18L3302.03,-1403.64L3342.15,-1372.78L3458.38,-1320.00L3534.99,-1302.39L3719.89,-1276.61L4004.45,-1243.67L4085.87,-1229.87" />
        <path d="M3401.12,80.29L3346.70,135.16L3327.60,224.71L3327.73,299.00L3360.19,433.84L3400.12,504.00L3491.62,619.46L3555.61,670.56L3681.28,755.02L3741.96,797.00" />
        <path d="M3154.83,1830.09L3141.85,1942.19L3154.38,2135.90L3181.84,2313.85L3212.98,2422.32L3278.92,2569.77L3362.11,2719.22" />
        <path d="M2438.26,2660.32L2373.23,2731.44L2290.27,2844.17L2252.10,2909.66L2216.38,3067.19L2219.33,3154.92L2265.04,3326.25L2291.04,3403.54" />
        <path d="M1453.20,3092.43L1401.60,3160.74L1343.69,3245.79L1301.53,3345.77L1284.91,3413.76" />
        <path d="M112.54,2784.28L32.57,2871.15L-12.72,2922.71L-76.44,3020.19L-95.87,3074.75" />
        <path d="M-1039.55,2847.51L-1120.19,2977.99L-1185.41,3088.41L-1235.70,3183.09L-1279.17,3256.70L-1310.03,3296.82" />
        <path d="M-2360.83,2598.41L-2479.78,2720.09L-2574.18,2818.39L-2669.08,2921.00L-2719.18,2976.37" />
        <path d="M-3410.98,2385.07L-3551.99,2508.56L-3640.58,2594.43L-3732.48,2671.17L-3799.83,2724.54L-3859.38,2748.24" />
        <path d="M-4125.52,1839.19L-4184.56,1858.57L-4272.47,1900.82L-4356.07,1943.57L-4440.67,1994.95L-4487.27,2020.14" />
        <path d="M-4468.18,1100.42L-4596.21,1111.81L-4635.51,1111.63L-4712.62,1098.34L-4749.42,1076.60L-4811.92,1012.56" />
        <path d="M-4619.27,-123.01L-4675.64,-164.49L-4704.82,-176.61L-4762.19,-209.46L-4794.68,-230.70L-4838.93,-301.37L-4855.00,-351.29L-4871.70,-471.19" />
        <path d="M-4429.75,-891.91L-4477.81,-967.39L-4513.94,-1032.74L-4540.45,-1105.72L-4551.20,-1163.76L-4543.85,-1302.73L-4518.94,-1404.71L-4480.09,-1513.81L-4450.54,-1580.30" />
        <path d="M-4014.09,-1953.59L-3984.22,-1985.09L-3927.95,-2131.50L-3880.98,-2235.30" />
      </g>
      <g id="f3" style="--index:3; opacity:0;" class="frame" />
    </g>
  </g>
</svg>